:10000000426F6E6A6F7572208274756469616E7476
:1000100020656E205648444C0D0A536920747520A3
:100020006C69732063652074657874652C20632780
:100030006573742071756520636520545020666F68
:100040006E6374696F6E6E6520617373657A20628A
:1000500069656E20210D0A456E207282636F6D7096
:10006000656E73652C20766F696369207175656CA8
:100070007175657320686973746F697265732E2E6C
:100080002E0D0A0D0A556E206D6F6E7369657572BF
:100090002076697369746520756E206D757382654D
:1000A0002E20536F756461696E20696C207327611F
:1000B000727288746520657420646974206175208B
:1000C0006775696465203A0D0A2D2041682C20630C
:1000D00027657374206D6F63686520210D0A2D20DC
:1000E0004327657374206475205069636173736F6F
:1000F0002C207282706F6E64206C65206775696455
:10010000652E0D0A506C7573206C6F696E2C20691A
:100110006C2073278263726965206465206E6F7539
:1001200076656175203A0D0A2D2041682C206327E1
:1001300065737420767261696D656E74206D6F638E
:10014000686520210D0A2D208761204D6F6E73692F
:100150006575722C20632765737420756E206D6938
:10016000726F697220210D0A0D0A556E20656E6648
:10017000616E747320646974208520736F6E2070C3
:100180006572653A0D0A2D20506170612C207175E1
:1001900069206D276120646F6E6E82206D6F6E2006
:1001A000696E74656C6C6967656E6365203F0D0AE6
:1001B0002D20876120646F697420887472652074B3
:1001C00061206D8A72652C206D6F69206A276169D4
:1001D00020656E636F7265206C61206D69656E6E5F
:1001E0006520210D0A0D0A4C65206D6172696167F9
:1001F000652065737420636F6D6D6520756E206D6D
:1002000069726167652064616E73206C6520648229
:1002100073657274203A2070616C6169732C20637D
:100220006F636F74696572732C206F617369732CCF
:100230000D0A536F756461696E2C20746F7574209C
:10024000646973706172618C742C20657420696CB0
:10025000206E6520726573746520717565206C650C
:10026000206368616D6561752E0D0A0D0A4327656F
:10027000737420756E65206D618C7472657373651F
:100280002071756920736F727420756E65206361CB
:10029000727465206475206D6F6E64652C20656CCA
:1002A0006C652064656D616E6465208520756E20C7
:1002B000826C8A76652C204A61636F622C206465AB
:1002C0002076656E697220706F696E746572206C3D
:1002D00027416D82726971756520737572206C613A
:1002E0002063617274652E0D0A456E7375697465BD
:1002F0002C20656C6C6520646974203A0D0A2D20F1
:100300004D61696E74656E616E74207175652074DF
:100310006F7574206C65206D6F6E64652073616904
:1003200074206F972073652074726F757665206CEA
:1003300027416D8272697175652C20706F757665C5
:100340007A20766F7573206D6520646972652071FF
:100350007569206C2761206482636F75766572749D
:1003600065203F0D0A546F7573206C657320826C95
:100370008A76657320646973656E74203A0D0A2D60
:10038000204327657374204A61636F6220210D0A40
:100390000D0A547520766575782088747265206C16
:1003A0006520736F6C65696C206465206D612076D3
:1003B0006965203F0D0A416C6F72732C2072657362
:1003C0007465208520646573206D696C6C69617249
:1003D0006473206465206B696C6F6D8A74726573D9
:1003E000206465206D6F6920210D0A0D0A2E2E2EC6
:1003F0002E2E2E2E2E2E2E2E2E2E2E2E2E2E0A0D62
:00000001FF
